Chapter 6 第六章 文本数据分析 | 语言数据科学教程
…
# 检索中文
law_ce%>%
  filter(str_detect(cn, "当事人"))%>%
  datatable(.,
  filter = "top",
  class = 'cell-border stripe hover compact'
) # put it at the top of the table

law_ce%>%
  mutate(count = str_count(cn, "当事人"))%>%
  filter(count > 0)

## # A tibble: 41 × 3
##    cn                                                                                                   en    count
##    <chr>                                                                                                <chr> <int>
##  1         第一条     为了保护合同当事人的合法权益，维护社会经济秩序，促进社会主义现代化建设，制定本法… Arti…     1
##  2         第三条     合同当事人的法律地位平等，一方不得将自己的意志强加给另一方。                      Arti…     1
##  3         第四条     当事人依法享有自愿订立合同的权利，任何单位和个人不得非法干预。                    Arti…     1
##  4         第五条     当事人应当遵循公平原则确定各方的权利和义务。                                      Arti…     1
##  5         第六条     当事人行使权利、履行义务应当遵循诚实信用原则。                                    Arti…     1
##  6         第七条     当事人订立、履行合同，应当遵守法律、行政法规，尊重社会公德，不得扰乱社会经济秩序… Arti…     1
##  7         第八条     依法成立的合同，对当事人具有法律约束力。当事人应当按照约定履行自己的义务，不得擅… Arti…     2
##  8         第九条     当事人订立合同，应当具有相应的民事权利能力和民事行为能力。当事人依法可以委托代理… Arti…     2
##  9         第十条     当事人订立合同，有书面形式、口头形式和其他形式。法律、行政法规规定采用书面形式的… Arti…     2
## 10         第十二条     合同的内容由当事人约定，一般包括以下条款：                                      Arti…     1
## # ℹ 31 more rows
…
